{
    "$schema": "http://json-schema.org/draft-04/schema#",
    "id": "feedback",
    "request": {
        "id": "#request",
        "type": "object",
        "additionalProperties": false,
        "required": ["userId", "parentId"],
        "properties": {
            "userId":  { "$ref": "definitions#docId"},
            "parentId":  { "oneOf": [
                { "enum": [ null]},
                { "$ref": "definitions#docId"}
            ]},
            "createdDelta": { "$ref": "definitions#timeDelta" },
            "comment": { "$ref": "definitions#multiLangString" },
            "like": { "type": "integer", "minimum": 0, "maximum": 1},
            "score": { "enum": [ 1]}
        },
        "anyOf" : [
            { "required": ["comment"] },
            { "required": ["like"] },
            { "required": ["score"] }
        ]
    }
}