{
    "$schema": "http://json-schema.org/draft-04/schema#",
    "id": "response",
    "request": {
        "id": "#request",
        "type": "object",
        "required": ["offerId", "action","time"],
        "additionalProperties": false,
        "properties": {
            "offerId":  { "$ref": "definitions#docId"},
            "action": { "enum": ["view","like"]},
            "time" : { "$ref": "definitions#timestamp"}
        }
    }
}