{
    "$schema": "http://json-schema.org/draft-04/schema#",
    "id": "userCounts",
    "type": "object",
    "additionalProperties": false,
    "properties": {
        "unreadComments": { "required": true, "type": "integer", "minimum": 0},
        "unreadLikes": { "required": true, "type": "integer", "minimum": 0},
        "repScore": { "required": true, "type": "integer", "minimum": 0},
        "repLevels": {
            "required": true,
            "type": "array",
            "minItems": 1,
            "uniqueItems": true,
            "items": [ { "type": "object", "enum": [ { "score": 0 }]}],
            "additionalItems": {
                "type": "object",
                "additionalProperties": false,
                "properties" : {
                    "score": { "required": true, "type": "integer", "minimum": 1}
                }
            }
        }
    }
}