{
    "$schema": "http://json-schema.org/draft-04/schema#",

    "voucherInfo": {
        "id": "voucherInfo",
        "type": "array",
        "items": {
            "type": "object",
            "required": ["offer", "numberOfClaims", "totalClaimed","numberOfRedemptions","totalRedeemed"],
            "properties": {
                "offer": { "$ref": "offer#existing"},
                "codes": { "type": "array", "items": {"type": "string"}},
                "numberOfClaims": { "type": "integer", "minimum": 0},
                "totalClaimed":  { "type": "integer", "minimum": 0},
                "numberOfRedemptions": { "type": "integer", "minimum": 0},
                "totalRedeemed":  { "type": "integer", "minimum": 0}
            }
        }
    },

    "list": {
        "id": "#list",
        "type": "array",
        "items": {
            "$ref": "voucherInfo"
        }
    }
}
