{
    "$schema": "http://json-schema.org/draft-04/schema#",
    "id": "voucher",

    "claim": {
        "id": "#claim",
        "type": "object",
        "required": ["offerId", "instanceSite", "instanceDisplayFrom", "count"],
        "additionalProperties": false,
        "properties": {
            "offerId": { "$ref": "definitions#docId"},
            "instanceSite": { "type": "string"},
            "instanceDisplayFrom": { "$ref": "definitions#timestamp"},
            "count": { "type": "integer", "minimum": 0},
            "location": { "$ref": "definitions#geoLocation#" }
        }
    },

    "claimResponse": {
        "id": "#claim#response",
        "type": "object",
        "required": ["offerId", "instanceSite", "instanceDisplayFrom", "count", "totalUnclaimed"],
        "additionalProperties": false,
        "properties": {
            "offerId": { "$ref": "definitions#docId"},
            "instanceSite": { "type": "string"},
            "instanceDisplayFrom": { "$ref": "definitions#timestamp"},
            "count": { "type": "integer", "minimum": 0},
            "totalUnclaimed": { "type": "integer", "minimum": 0}
        }
    },

    "redemption" : {
        "id": "#redemption",
        "type": "object",
        "required": ["offerId", "instanceSite", "instanceDisplayFrom", "location"],
        "additionalProperties": false,
        "properties": {
            "offerId":  { "$ref": "definitions#docId"},
            "instanceSite": { "type": "string"},
            "instanceDisplayFrom": { "$ref": "definitions#timestamp"},
            "count": { "type": "integer", "minimum": 0},
            "location": { "$ref": "definitions#geoLocation#" },
            "redemptionCode": { "type": "string"},
            "time": { "$ref": "definitions#timestamp"}
        }
    }
}